<svg id="Group_46" data-name="Group 46" xmlns="http://www.w3.org/2000/svg" width="58" height="58" viewBox="0 0 58 58">
  <circle id="Ellipse_2" data-name="Ellipse 2" cx="29" cy="29" r="29" fill="#f2bc87"/>
  <g id="book" transform="translate(14.167 14.167)">
    <g id="Group_39" data-name="Group 39" transform="translate(0 8.681)">
      <path id="Path_55" data-name="Path 55" d="M16.551,170.95H13.079a.867.867,0,0,1-.614-.254l-1.482-1.482H.868A.868.868,0,0,1,0,168.345V150.868A.868.868,0,0,1,.868,150H4.4a.868.868,0,0,1,.868.868V164h7.813a2.6,2.6,0,0,1,1.736.665A2.6,2.6,0,0,1,16.551,164h7.813V150.868a.868.868,0,0,1,.868-.868h3.53a.868.868,0,0,1,.868.868v17.477a.868.868,0,0,1-.868.868H18.647L17.165,170.7A.868.868,0,0,1,16.551,170.95Z" transform="translate(0 -150)" fill="#ff641a"/>
    </g>
    <path id="Path_56" data-name="Path 56" d="M257.736,170.95a.867.867,0,0,0,.614-.254l1.482-1.482h10.115a.868.868,0,0,0,.868-.868V150.868a.868.868,0,0,0-.868-.868h-3.53a.868.868,0,0,0-.868.868V164h-7.813a2.6,2.6,0,0,0-1.736.665v6.28Z" transform="translate(-241.185 -141.319)" fill="#f03800"/>
    <path id="Path_57" data-name="Path 57" d="M69.16,97.8A6,6,0,0,1,66.208,92.6a5.659,5.659,0,0,1,.191-1.493A.868.868,0,0,0,65.566,90h-3.7a.86.86,0,0,0-.868.868v17.477a.86.86,0,0,0,.868.868h8.681a.86.86,0,0,1,.868.868.86.86,0,0,0,.868.868l1.736-5.453-1.736-4.559A9.174,9.174,0,0,0,69.16,97.8Z" transform="translate(-57.47 -84.792)" fill="#fff5f5"/>
    <g id="Group_41" data-name="Group 41" transform="translate(14.815 5.208)">
      <g id="Group_40" data-name="Group 40">
        <path id="Path_58" data-name="Path 58" d="M267.285,90.868v17.477a.86.86,0,0,1-.868.868h-8.681a.86.86,0,0,0-.868.868.86.86,0,0,1-.868.868V100.938a9.025,9.025,0,0,1,3.125-3.142,6,6,0,0,0,2.951-5.191,5.659,5.659,0,0,0-.191-1.493A.868.868,0,0,1,262.719,90h3.7A.86.86,0,0,1,267.285,90.868Z" transform="translate(-256 -90)" fill="#efe2dd"/>
      </g>
    </g>
    <g id="Group_42" data-name="Group 42" transform="translate(7.002 0)">
      <path id="Path_59" data-name="Path 59" d="M128.843,19.025a.853.853,0,0,1-.81-.415,7.452,7.452,0,0,0-3.242-4.115A7.856,7.856,0,0,1,121,7.813a7.185,7.185,0,0,1,.258-1.971,7.806,7.806,0,0,1,15.115.021,7.118,7.118,0,0,1,.253,1.95,7.855,7.855,0,0,1-3.788,6.681,7.265,7.265,0,0,0-3.183,3.971.986.986,0,0,1-.811.56Z" transform="translate(-121)" fill="#fed843"/>
    </g>
    <path id="Path_60" data-name="Path 60" d="M256.031,19.025a.987.987,0,0,0,.811-.56,7.264,7.264,0,0,1,3.183-3.971,7.855,7.855,0,0,0,3.788-6.681,7.118,7.118,0,0,0-.253-1.95A7.786,7.786,0,0,0,256,0V19.019c.011,0,.02.006.03.006Z" transform="translate(-241.185 0)" fill="#fabe2c"/>
    <g id="literary_trivia_1_" transform="translate(12.211 3.472)">
      <g id="Group_43" data-name="Group 43">
        <path id="Path_61" data-name="Path 61" d="M216.208,62.6a2.608,2.608,0,0,1-1.719,2.448.951.951,0,0,1-.885.955.813.813,0,0,1-.868-.8,1.85,1.85,0,0,1,.868-1.649,1.547,1.547,0,0,1,.3-.139.868.868,0,1,0-1.163-.816.868.868,0,0,1-1.736,0,2.6,2.6,0,1,1,5.208,0Z" transform="translate(-211 -59.999)" fill="#474f54"/>
      </g>
      <g id="Group_44" data-name="Group 44" transform="translate(0.622 6.361)">
        <circle id="Ellipse_1" data-name="Ellipse 1" cx="1.5" cy="1.5" r="1.5" fill="#474f54"/>
      </g>
    </g>
    <g id="Group_45" data-name="Group 45" transform="translate(14.815 3.472)">
      <path id="Path_62" data-name="Path 62" d="M256.868,180.868A.868.868,0,0,0,256,180v1.736A.868.868,0,0,0,256.868,180.868Z" transform="translate(-256 -173.055)" fill="#32393f"/>
      <path id="Path_63" data-name="Path 63" d="M258.6,62.6a2.608,2.608,0,0,1-1.719,2.448.951.951,0,0,1-.885.955V63.559a1.547,1.547,0,0,1,.3-.139.868.868,0,0,0-.3-1.684V60A2.6,2.6,0,0,1,258.6,62.6Z" transform="translate(-256 -60)" fill="#32393f"/>
    </g>
  </g>
</svg>
